<?xml version="1.0" standalone="no"?>
<!DOCTYPE svg PUBLIC "-//W3C//DTD SVG 20010904//EN"
 "http://www.w3.org/TR/2001/REC-SVG-20010904/DTD/svg10.dtd">
<svg version="1.0" xmlns="http://www.w3.org/2000/svg"
 width="255.000000pt" height="260.000000pt" viewBox="0 0 255.000000 260.000000"
 preserveAspectRatio="xMidYMid meet">

<g transform="translate(0.000000,260.000000) scale(0.100000,-0.100000)"
fill="#000000" stroke="none">
<path d="M0 1295 l0 -1295 1275 0 1275 0 0 1295 0 1295 -1275 0 -1275 0 0
-1295z m1167 809 c3 -8 1 -20 -6 -27 -6 -6 -11 -35 -11 -64 l0 -53 -85 0 c-50
0 -93 -5 -105 -12 -27 -17 -50 3 -30 27 9 11 16 13 24 5 5 -5 50 -10 99 -10
l90 0 -5 70 c-3 38 -3 72 0 75 10 10 23 5 29 -11z m74 -62 c-3 -69 -2 -72 19
-72 22 0 22 3 18 70 -3 39 -2 73 3 76 4 2 17 -1 29 -8 16 -10 24 -10 41 0 12
7 24 10 27 7 4 -4 7 -39 7 -78 l0 -72 46 -6 c103 -15 169 -74 177 -160 7 -76
-5 -119 -46 -158 -24 -22 -32 -36 -24 -39 24 -8 73 -54 87 -83 18 -33 20 -145
4 -186 -15 -40 -67 -91 -107 -104 -19 -6 -58 -14 -86 -18 l-51 -6 0 -65 -1
-64 -56 -1 c-38 -1 -59 3 -62 12 -3 7 -1 15 4 18 6 4 10 26 10 51 0 40 -2 44
-25 44 -23 0 -25 -4 -25 -44 0 -25 5 -48 11 -51 24 -16 -1 -29 -55 -30 -60 -1
-75 7 -56 30 6 7 10 33 8 57 l-3 43 -85 -1 c-47 0 -93 -3 -104 -5 -17 -4 -19
3 -20 84 l-2 87 36 -2 35 -3 3 229 c3 249 6 234 -50 211 -22 -9 -36 21 -19 38
9 9 16 9 31 -1 11 -6 27 -12 35 -12 13 0 15 -30 13 -242 l-3 -242 -25 -6 c-23
-5 -25 -11 -25 -60 l0 -55 97 -3 97 -3 3 -57 c3 -56 4 -57 33 -57 30 0 30 1
33 58 l3 57 34 0 35 0 0 -54 c0 -100 61 -105 70 -5 l5 54 62 6 c135 13 203 81
203 202 0 77 -28 128 -87 159 -23 13 -43 26 -43 30 0 4 13 14 30 23 78 41 94
176 28 250 -31 36 -103 65 -160 65 -28 0 -28 1 -28 59 0 39 -5 63 -15 71 -18
15 -49 9 -52 -10 -1 -8 -5 -36 -8 -62 -6 -46 -7 -48 -39 -48 l-34 0 -4 73 c-5
77 -3 90 15 84 8 -2 11 -27 8 -75z m61 -217 c45 -7 68 -36 68 -86 0 -56 -26
-80 -96 -90 -62 -8 -86 0 -66 23 6 7 12 31 15 53 l4 40 1 -40 c2 -49 16 -65
54 -65 62 0 98 76 62 129 -15 21 -22 23 -75 18 -33 -3 -62 -1 -65 4 -10 17 8
30 34 25 15 -2 44 -7 64 -11z m-57 -275 c3 -5 29 -10 56 -10 68 0 99 -30 99
-95 0 -64 -31 -95 -95 -95 -25 0 -54 -6 -65 -12 -27 -17 -46 1 -31 30 6 11 12
40 13 64 1 41 2 41 7 -12 l6 -55 56 -3 c51 -3 59 0 78 24 30 38 28 88 -5 121
-24 24 -31 25 -90 20 -35 -2 -67 -1 -70 4 -7 13 4 29 21 29 8 0 17 -4 20 -10z
m-675 -655 c7 -8 10 -25 6 -39 -3 -14 -2 -28 4 -31 16 -10 12 -52 -6 -70 -12
-11 -30 -15 -63 -13 l-46 3 -3 83 -3 82 49 0 c32 0 54 -5 62 -15z m80 -70 c0
-50 -4 -85 -10 -85 -6 0 -10 35 -10 85 0 50 4 85 10 85 6 0 10 -35 10 -85z
m170 75 c0 -5 -13 -10 -30 -10 l-30 0 0 -76 c0 -47 -4 -73 -10 -69 -5 3 -10
37 -10 76 0 67 -1 69 -25 69 -14 0 -25 5 -25 10 0 6 28 10 65 10 37 0 65 -4
65 -10z m144 4 c9 -3 16 -16 16 -27 0 -19 -1 -20 -13 -3 -9 13 -23 17 -52 14
l-40 -3 0 -60 0 -60 38 -3 c28 -2 43 2 53 15 13 17 13 17 14 -3 0 -25 -17 -34
-65 -34 -49 0 -65 22 -65 85 0 35 5 59 16 69 15 16 69 21 98 10z m192 -19 c19
-29 15 -104 -6 -130 -17 -21 -94 -20 -111 2 -8 9 -14 39 -14 68 0 67 15 85 71
85 35 0 47 -5 60 -25z m74 -60 c0 -50 -4 -85 -10 -85 -6 0 -10 35 -10 85 0 50
4 85 10 85 6 0 10 -35 10 -85z m137 0 l32 -40 1 63 c0 34 4 62 10 62 6 0 10
-35 10 -85 0 -47 -3 -85 -8 -85 -4 0 -28 27 -52 60 -25 33 -48 60 -52 60 -5 0
-8 -27 -8 -61 0 -37 -4 -58 -10 -54 -11 7 -14 148 -3 159 8 7 18 -3 80 -79z
m203 55 c0 -39 12 -38 44 2 14 18 28 29 32 25 4 -4 -2 -17 -13 -30 -34 -37
-34 -43 -3 -82 17 -21 30 -42 30 -46 0 -18 -16 -7 -44 31 -33 45 -46 43 -46
-6 0 -19 -4 -34 -10 -34 -6 0 -10 35 -10 85 0 50 4 85 10 85 6 0 10 -13 10
-30z m240 20 c0 -5 -20 -10 -45 -10 -41 0 -45 -2 -45 -25 0 -20 5 -25 24 -25
35 0 42 -18 9 -22 -22 -2 -29 -9 -31 -30 -3 -27 -2 -28 42 -28 25 0 46 -4 46
-10 0 -5 -25 -10 -55 -10 l-55 0 0 85 0 85 55 0 c30 0 55 -4 55 -10z m59 -30
c12 -22 26 -40 30 -40 4 0 17 18 30 40 12 22 26 40 32 40 14 0 12 -5 -21 -58
-17 -27 -30 -63 -30 -81 0 -17 -4 -31 -10 -31 -5 0 -10 13 -10 30 0 16 -13 51
-30 77 -31 48 -36 63 -22 63 5 0 18 -18 31 -40z m235 34 c9 -3 16 -13 16 -21
0 -12 -3 -13 -14 -4 -8 7 -30 11 -48 9 -25 -2 -33 -8 -33 -23 0 -16 9 -21 43
-26 46 -6 62 -20 62 -56 0 -27 -27 -43 -73 -43 -34 0 -67 24 -53 37 4 4 11 2
15 -5 5 -8 23 -12 47 -10 34 3 39 6 39 28 0 22 -5 25 -42 28 -30 2 -46 9 -53
22 -11 20 -4 50 14 62 13 9 59 10 80 2z m-1221 -311 c-7 -2 -14 -21 -15 -41
l-1 -37 -4 35 c-3 19 -10 38 -16 42 -7 4 1 7 18 7 17 0 24 -3 18 -6z m93 -37
c1 -28 -1 -34 -8 -22 -12 21 -25 20 -31 -1 -3 -10 -5 1 -6 25 -1 40 1 43 22
40 18 -2 22 -10 23 -42z m89 29 c16 19 16 19 2 -5 -8 -14 -17 -35 -20 -45 -3
-15 -5 -14 -6 7 0 15 -5 30 -11 33 -5 3 -10 11 -10 18 0 6 6 2 14 -9 15 -19
15 -19 31 1z m138 8 c-7 -2 -14 -21 -15 -41 l-1 -37 -4 35 c-3 19 -10 38 -16
42 -7 4 1 7 18 7 17 0 24 -3 18 -6z m93 -37 c1 -28 -1 -34 -8 -22 -12 21 -25
20 -31 -1 -3 -10 -5 1 -6 25 -1 40 1 43 22 40 18 -2 22 -10 23 -42z m88 29
c13 16 12 12 -2 -22 -14 -35 -18 -38 -20 -20 -2 12 -8 26 -13 32 -5 5 -9 13
-9 19 0 5 6 1 14 -10 15 -19 15 -19 30 1z m144 8 c-13 -3 -18 -16 -20 -41 l-1
-37 -4 35 c-3 19 -10 38 -16 42 -7 4 4 7 23 7 19 -1 27 -3 18 -6z m87 -23 c0
-14 4 -31 8 -37 5 -7 4 -13 -1 -13 -6 0 -12 7 -16 15 -7 20 -24 19 -29 -2 -3
-10 -5 1 -6 25 -1 40 1 43 22 40 16 -2 22 -10 22 -28z m91 16 c8 10 12 13 8 5
-4 -8 -10 -27 -13 -42 -6 -28 -6 -28 -23 14 -13 31 -14 37 -3 23 15 -20 15
-20 31 0z"/>
<path d="M1140 2100 c0 -5 5 -10 11 -10 5 0 7 5 4 10 -3 6 -8 10 -11 10 -2 0
-4 -4 -4 -10z"/>
<path d="M1220 2100 c0 -5 5 -10 10 -10 6 0 10 5 10 10 0 6 -4 10 -10 10 -5 0
-10 -4 -10 -10z"/>
<path d="M1280 2100 c0 -5 5 -10 10 -10 6 0 10 5 10 10 0 6 -4 10 -10 10 -5 0
-10 -4 -10 -10z"/>
<path d="M1360 2100 c0 -5 5 -10 10 -10 6 0 10 5 10 10 0 6 -4 10 -10 10 -5 0
-10 -4 -10 -10z"/>
<path d="M930 1350 c0 -5 5 -10 10 -10 6 0 10 5 10 10 0 6 -4 10 -10 10 -5 0
-10 -4 -10 -10z"/>
<path d="M930 1209 c0 -5 5 -7 10 -4 6 3 10 8 10 11 0 2 -4 4 -10 4 -5 0 -10
-5 -10 -11z"/>
<path d="M1220 1090 c0 -5 5 -10 11 -10 5 0 7 5 4 10 -3 6 -8 10 -11 10 -2 0
-4 -4 -4 -10z"/>
<path d="M1360 1090 c0 -5 5 -10 10 -10 6 0 10 5 10 10 0 6 -4 10 -10 10 -5 0
-10 -4 -10 -10z"/>
<path d="M1215 1350 c3 -5 8 -10 11 -10 2 0 4 5 4 10 0 6 -5 10 -11 10 -5 0
-7 -4 -4 -10z"/>
<path d="M482 868 c2 -19 9 -23 38 -23 28 0 35 4 35 20 0 16 -8 21 -38 23 -35
3 -38 1 -35 -20z"/>
<path d="M480 790 c0 -30 1 -31 43 -28 37 3 42 6 42 28 0 22 -5 25 -42 28 -42
3 -43 2 -43 -28z"/>
<path d="M1052 878 c-16 -16 -16 -90 0 -106 20 -20 76 -15 88 7 14 27 13 84
-2 99 -16 16 -70 16 -86 0z"/>
<path d="M940 575 c0 -8 7 -15 15 -15 8 0 15 7 15 15 0 8 -7 15 -15 15 -8 0
-15 -7 -15 -15z"/>
<path d="M1260 575 c0 -8 7 -15 15 -15 8 0 15 7 15 15 0 8 -7 15 -15 15 -8 0
-15 -7 -15 -15z"/>
<path d="M1580 575 c0 -8 7 -15 15 -15 8 0 15 7 15 15 0 8 -7 15 -15 15 -8 0
-15 -7 -15 -15z"/>
</g>
</svg>
